{
  "db": "SQLite",
  "5ca0402860e10aa15804d16499faacea856ca8dd5b4cea07a4b1710b66d3c3e4": {
    "describe": {
      "columns": [
        {
          "name": "tag",
          "ordinal": 0,
          "type_info": "Text"
        }
      ],
      "nullable": [
        false
      ],
      "parameters": {
        "Right": 0
      }
    },
    "query": "\n            select distinct tag\n            from tags\n            "
  },
  "78ab3e1087098bc135c78aa43ca846339e3f0c836434b1d0f46cd4dda21039f0": {
    "describe": {
      "columns": [
        {
          "name": "tag",
          "ordinal": 0,
          "type_info": "Text"
        }
      ],
      "nullable": [
        false
      ],
      "parameters": {
        "Right": 1
      }
    },
    "query": "\n            select tag\n            from images as i join tags as t \n                on i.filepath = t.filepath\n            where i.filepath = ?1\n            "
  },
  "91a4c180ec8c4f983a3d330a9b0fe239d5f408d0994ab4ab3f8c934266b5c2d2": {
    "describe": {
      "columns": [
        {
          "name": "filepath",
          "ordinal": 0,
          "type_info": "Text"
        },
        {
          "name": "filename",
          "ordinal": 1,
          "type_info": "Text"
        },
        {
          "name": "extension",
          "ordinal": 2,
          "type_info": "Text"
        },
        {
          "name": "width",
          "ordinal": 3,
          "type_info": "Int64"
        },
        {
          "name": "height",
          "ordinal": 4,
          "type_info": "Int64"
        },
        {
          "name": "hash",
          "ordinal": 5,
          "type_info": "Text"
        },
        {
          "name": "modified",
          "ordinal": 6,
          "type_info": "Int64"
        }
      ],
      "nullable": [
        false,
        false,
        false,
        false,
        false,
        false,
        false
      ],
      "parameters": {
        "Right": 0
      }
    },
    "query": "\n            select * from images;\n            "
  },
  "c6944614b6e75cf7d0b006855fd03cddc3b7c0c5469cf8d25f071e1c0790cd70": {
    "describe": {
      "columns": [],
      "nullable": [],
      "parameters": {
        "Right": 7
      }
    },
    "query": "\n                            insert into images (filepath, filename, extension, hash, width, height, modified)\n                            values (?1, ?2, ?3, ?4, ?5, ?6, ?7)\n                            on conflict(filepath) do update\n                                set hash = ?4, width = ?5, height = ?6, modified = ?7;\n                            "
  }
}